display/spi.vcd
$date
	Wed Sep 20 21:01:27 2023
$end
$version
	Icarus Verilog
$end
$timescale
	1ps
$end
$scope module spi_tx_tb $end
$var wire 1 ! sel_out $end
$var wire 1 " data_out $end
$var wire 1 # data_clk_out $end
$var reg 1 $ clk_in $end
$var reg 16 % data_in [15:0] $end
$var reg 1 & rst_in $end
$var reg 1 ' trigger_in $end
$scope module uut $end
$var wire 4 ( HALF_PERIOD [3:0] $end
$var wire 1 $ clk_in $end
$var wire 16 ) data_in [15:0] $end
$var wire 1 & rst_in $end
$var wire 1 ' trigger_in $end
$var wire 5 * FULL_PERIOD [4:0] $end
$var reg 16 + data [15:0] $end
$var reg 1 # data_clk_out $end
$var reg 16 , data_i [15:0] $end
$var reg 1 " data_out $end
$var reg 5 - period_counter [4:0] $end
$var reg 1 ! sel_out $end
$upscope $end
$scope begin $ivl_for_loop0 $end
$var integer 32 . i [31:0] $end
$upscope $end
$scope begin $ivl_for_loop1 $end
$var integer 32 / i [31:0] $end
$upscope $end
$upscope $end
$enddefinitions $end
#0
$dumpvars
b0 /
b0 .
bx -
bx ,
bx +
b1010 *
b1011111011101111 )
b101 (
0'
0&
b1011111011101111 %
0$
x#
x"
x!
$end
#5000
1$
#10000
0$
1&
#15000
1"
0#
b0 -
b1111 ,
b1011111011101111 +
1!
1$
#20000
0$
0&
#25000
1$
#30000
0$
#35000
1$
#40000
0$
#45000
1$
#50000
0$
#55000
1$
#60000
0$
#65000
1$
#70000
0$
1'
#75000
0!
1$
#80000
0$
0'
#85000
b1 -
1$
#90000
0$
b1 .
#95000
b10 -
1$
#100000
0$
b10 .
#105000
b11 -
1$
#110000
0$
b11 .
#115000
b100 -
1$
#120000
0$
b100 .
#125000
b101 -
1#
1$
#130000
0$
b101 .
#135000
b110 -
1$
#140000
0$
b110 .
#145000
b111 -
1$
#150000
0$
b111 .
#155000
b1000 -
1$
#160000
0$
b1000 .
#165000
b1001 -
1$
#170000
0$
b1001 .
#175000
b0 -
b1110 ,
0"
0#
1$
#180000
0$
b1010 .
#185000
b1 -
1$
#190000
0$
b1011 .
#195000
b10 -
1$
#200000
0$
b1100 .
#205000
b11 -
1$
#210000
0$
b1101 .
#215000
b100 -
1$
#220000
0$
b1110 .
#225000
b101 -
1#
1$
#230000
0$
b1111 .
#235000
b110 -
1$
#240000
0$
b10000 .
#245000
b111 -
1$
#250000
0$
b10001 .
#255000
b1000 -
1$
#260000
0$
b10010 .
#265000
b1001 -
1$
#270000
0$
b10011 .
#275000
b0 -
b1101 ,
1"
0#
1$
#280000
0$
b10100 .
#285000
b1 -
1$
#290000
0$
b10101 .
#295000
b10 -
1$
#300000
0$
b10110 .
#305000
b11 -
1$
#310000
0$
b10111 .
#315000
b100 -
1$
#320000
0$
b11000 .
#325000
b101 -
1#
1$
#330000
0$
b11001 .
#335000
b110 -
1$
#340000
0$
b11010 .
#345000
b111 -
1$
#350000
0$
b11011 .
#355000
b1000 -
1$
#360000
0$
b11100 .
#365000
b1001 -
1$
#370000
0$
b11101 .
#375000
b0 -
b1100 ,
0#
1$
#380000
0$
b11110 .
#385000
b1 -
1$
#390000
0$
b11111 .
#395000
b10 -
1$
#400000
0$
b100000 .
#405000
b11 -
1$
#410000
0$
b100001 .
#415000
b100 -
1$
#420000
0$
b100010 .
#425000
b101 -
1#
1$
#430000
0$
b100011 .
#435000
b110 -
1$
#440000
0$
b100100 .
#445000
b111 -
1$
#450000
0$
b100101 .
#455000
b1000 -
1$
#460000
0$
b100110 .
#465000
b1001 -
1$
#470000
0$
b100111 .
#475000
b0 -
b1011 ,
0#
1$
#480000
0$
b101000 .
#485000
b1 -
1$
#490000
0$
b101001 .
#495000
b10 -
1$
#500000
0$
b101010 .
#505000
b11 -
1$
#510000
0$
b101011 .
#515000
b100 -
1$
#520000
0$
b101100 .
#525000
b101 -
1#
1$
#530000
0$
b101101 .
#535000
b110 -
1$
#540000
0$
b101110 .
#545000
b111 -
1$
#550000
0$
b101111 .
#555000
b1000 -
1$
#560000
0$
b110000 .
#565000
b1001 -
1$
#570000
0$
b110001 .
#575000
b0 -
b1010 ,
0#
1$
#580000
0$
b110010 .
#585000
b1 -
1$
#590000
0$
b110011 .
#595000
b10 -
1$
#600000
0$
b110100 .
#605000
b11 -
1$
#610000
0$
b110101 .
#615000
b100 -
1$
#620000
0$
b110110 .
#625000
b101 -
1#
1$
#630000
0$
b110111 .
#635000
b110 -
1$
#640000
0$
b111000 .
#645000
b111 -
1$
#650000
0$
b111001 .
#655000
b1000 -
1$
#660000
0$
b111010 .
#665000
b1001 -
1$
#670000
0$
b111011 .
#675000
b0 -
b1001 ,
0#
1$
#680000
0$
b111100 .
#685000
b1 -
1$
#690000
0$
b111101 .
#695000
b10 -
1$
#700000
0$
b111110 .
#705000
b11 -
1$
#710000
0$
b111111 .
#715000
b100 -
1$
#720000
0$
b1000000 .
#725000
b101 -
1#
1$
#730000
0$
b1000001 .
#735000
b110 -
1$
#740000
0$
b1000010 .
#745000
b111 -
1$
#750000
0$
b1000011 .
#755000
b1000 -
1$
#760000
0$
b1000100 .
#765000
b1001 -
1$
#770000
0$
b1000101 .
#775000
b0 -
b1000 ,
0"
0#
1$
#780000
0$
b1000110 .
#785000
b1 -
1$
#790000
0$
b1000111 .
#795000
b10 -
1$
#800000
0$
b1001000 .
#805000
b11 -
1$
#810000
0$
b1001001 .
#815000
b100 -
1$
#820000
0$
b1001010 .
#825000
b101 -
1#
1$
#830000
0$
b1001011 .
#835000
b110 -
1$
#840000
0$
b1001100 .
#845000
b111 -
1$
#850000
0$
b1001101 .
#855000
b1000 -
1$
#860000
0$
b1001110 .
#865000
b1001 -
1$
#870000
0$
b1001111 .
#875000
b0 -
b111 ,
1"
0#
1$
#880000
0$
b1010000 .
#885000
b1 -
1$
#890000
0$
b1010001 .
#895000
b10 -
1$
#900000
0$
b1010010 .
#905000
b11 -
1$
#910000
0$
b1010011 .
#915000
b100 -
1$
#920000
0$
b1010100 .
#925000
b101 -
1#
1$
#930000
0$
b1010101 .
#935000
b110 -
1$
#940000
0$
b1010110 .
#945000
b111 -
1$
#950000
0$
b1010111 .
#955000
b1000 -
1$
#960000
0$
b1011000 .
#965000
b1001 -
1$
#970000
0$
b1011001 .
#975000
b0 -
b110 ,
0#
1$
#980000
0$
b1011010 .
#985000
b1 -
1$
#990000
0$
b1011011 .
#995000
b10 -
1$
#1000000
0$
b1011100 .
#1005000
b11 -
1$
#1010000
0$
b1011101 .
#1015000
b100 -
1$
#1020000
0$
b1011110 .
#1025000
b101 -
1#
1$
#1030000
0$
b1011111 .
#1035000
b110 -
1$
#1040000
0$
b1100000 .
#1045000
b111 -
1$
#1050000
0$
b1100001 .
#1055000
b1000 -
1$
#1060000
0$
b1100010 .
#1065000
b1001 -
1$
#1070000
0$
b1100011 .
#1075000
b0 -
b101 ,
0#
1$
#1080000
0$
b1100100 .
#1085000
b1 -
1$
#1090000
0$
b1100101 .
#1095000
b10 -
1$
#1100000
0$
b1100110 .
#1105000
b11 -
1$
#1110000
0$
b1100111 .
#1115000
b100 -
1$
#1120000
0$
b1101000 .
#1125000
b101 -
1#
1$
#1130000
0$
b1101001 .
#1135000
b110 -
1$
#1140000
0$
b1101010 .
#1145000
b111 -
1$
#1150000
0$
b1101011 .
#1155000
b1000 -
1$
#1160000
0$
b1101100 .
#1165000
b1001 -
1$
#1170000
0$
b1101101 .
#1175000
b0 -
b100 ,
0"
0#
1$
#1180000
0$
b1101110 .
#1185000
b1 -
1$
#1190000
0$
b1101111 .
#1195000
b10 -
1$
#1200000
0$
b1110000 .
#1205000
b11 -
1$
#1210000
0$
b1110001 .
#1215000
b100 -
1$
#1220000
0$
b1110010 .
#1225000
b101 -
1#
1$
#1230000
0$
b1110011 .
#1235000
b110 -
1$
#1240000
0$
b1110100 .
#1245000
b111 -
1$
#1250000
0$
b1110101 .
#1255000
b1000 -
1$
#1260000
0$
b1110110 .
#1265000
b1001 -
1$
#1270000
0$
b1110111 .
#1275000
b0 -
b11 ,
1"
0#
1$
#1280000
0$
b1111000 .
#1285000
b1 -
1$
#1290000
0$
b1111001 .
#1295000
b10 -
1$
#1300000
0$
b1111010 .
#1305000
b11 -
1$
#1310000
0$
b1111011 .
#1315000
b100 -
1$
#1320000
0$
b1111100 .
#1325000
b101 -
1#
1$
#1330000
0$
b1111101 .
#1335000
b110 -
1$
#1340000
0$
b1111110 .
#1345000
b111 -
1$
#1350000
0$
b1111111 .
#1355000
b1000 -
1$
#1360000
0$
b10000000 .
#1365000
b1001 -
1$
#1370000
0$
b10000001 .
#1375000
b0 -
b10 ,
0#
1$
#1380000
0$
b10000010 .
#1385000
b1 -
1$
#1390000
0$
b10000011 .
#1395000
b10 -
1$
#1400000
0$
b10000100 .
#1405000
b11 -
1$
#1410000
0$
b10000101 .
#1415000
b100 -
1$
#1420000
0$
b10000110 .
#1425000
b101 -
1#
1$
#1430000
0$
b10000111 .
#1435000
b110 -
1$
#1440000
0$
b10001000 .
#1445000
b111 -
1$
#1450000
0$
b10001001 .
#1455000
b1000 -
1$
#1460000
0$
b10001010 .
#1465000
b1001 -
1$
#1470000
0$
b10001011 .
#1475000
b0 -
b1 ,
0#
1$
#1480000
0$
b10001100 .
#1485000
b1 -
1$
#1490000
0$
b10001101 .
#1495000
b10 -
1$
#1500000
0$
b10001110 .
#1505000
b11 -
1$
#1510000
0$
b10001111 .
#1515000
b100 -
1$
#1520000
0$
b10010000 .
#1525000
b101 -
1#
1$
#1530000
0$
b10010001 .
#1535000
b110 -
1$
#1540000
0$
b10010010 .
#1545000
b111 -
1$
#1550000
0$
b10010011 .
#1555000
b1000 -
1$
#1560000
0$
b10010100 .
#1565000
b1001 -
1$
#1570000
0$
b10010101 .
#1575000
b0 -
b0 ,
0#
1$
#1580000
0$
b10010110 .
#1585000
b1 -
1$
#1590000
0$
b10010111 .
#1595000
b10 -
1$
#1600000
0$
b10011000 .
#1605000
b11 -
1$
#1610000
0$
b10011001 .
#1615000
b100 -
1$
#1620000
0$
b10011010 .
#1625000
b101 -
1#
1$
#1630000
0$
b10011011 .
#1635000
b110 -
1$
#1640000
0$
b10011100 .
#1645000
b111 -
1$
#1650000
0$
b10011101 .
#1655000
b1000 -
1$
#1660000
0$
b10011110 .
#1665000
b1001 -
1$
#1670000
0$
b10011111 .
#1675000
b0 -
b1111 ,
1!
0#
1$
#1680000
0$
b10100000 .
#1685000
1$
#1690000
0$
b10100001 .
#1695000
1$
#1700000
0$
b10100010 .
#1705000
1$
#1710000
0$
b10100011 .
#1715000
1$
#1720000
0$
b10100100 .
#1725000
1$
#1730000
0$
b10100101 .
#1735000
1$
#1740000
0$
b10100110 .
#1745000
1$
#1750000
0$
b10100111 .
#1755000
1$
#1760000
0$
b10101000 .
#1765000
1$
#1770000
0$
b10101001 .
#1775000
1$
#1780000
0$
b10101010 .
#1785000
1$
#1790000
0$
b10101011 .
#1795000
1$
#1800000
0$
b10101100 .
#1805000
1$
#1810000
0$
b10101101 .
#1815000
1$
#1820000
0$
b10101110 .
#1825000
1$
#1830000
0$
b10101111 .
#1835000
1$
#1840000
0$
b10110000 .
#1845000
1$
#1850000
0$
b10110001 .
#1855000
1$
#1860000
0$
b10110010 .
#1865000
1$
#1870000
0$
b10110011 .
#1875000
1$
#1880000
0$
b10110100 .
#1885000
1$
#1890000
0$
b10110101 .
#1895000
1$
#1900000
0$
b10110110 .
#1905000
1$
#1910000
0$
b10110111 .
#1915000
1$
#1920000
0$
b10111000 .
#1925000
1$
#1930000
0$
b10111001 .
#1935000
1$
#1940000
0$
b10111010 .
#1945000
1$
#1950000
0$
b10111011 .
#1955000
1$
#1960000
0$
b10111100 .
#1965000
1$
#1970000
0$
b10111101 .
#1975000
1$
#1980000
0$
b10111110 .
#1985000
1$
#1990000
0$
b10111111 .
#1995000
1$
#2000000
0$
b11000000 .
#2005000
1$
#2010000
0$
b11000001 .
#2015000
1$
#2020000
0$
b11000010 .
#2025000
1$
#2030000
0$
b11000011 .
#2035000
1$
#2040000
0$
b11000100 .
#2045000
1$
#2050000
0$
b11000101 .
#2055000
1$
#2060000
0$
b11000110 .
#2065000
1$
#2070000
0$
b11000111 .
#2075000
1$
#2080000
0$
b11001000 .
#2085000
1$
#2090000
0$
b11001001 .
#2095000
1$
#2100000
0$
b11001010 .
#2105000
1$
#2110000
0$
b11001011 .
#2115000
1$
#2120000
0$
b11001100 .
#2125000
1$
#2130000
0$
b11001101 .
#2135000
1$
#2140000
0$
b11001110 .
#2145000
1$
#2150000
0$
b11001111 .
#2155000
1$
#2160000
0$
b11010000 .
#2165000
1$
#2170000
0$
b11010001 .
#2175000
1$
#2180000
0$
b11010010 .
#2185000
1$
#2190000
0$
b11010011 .
#2195000
1$
#2200000
0$
b11010100 .
#2205000
1$
#2210000
0$
b11010101 .
#2215000
1$
#2220000
0$
b11010110 .
#2225000
1$
#2230000
0$
b11010111 .
#2235000
1$
#2240000
0$
b11011000 .
#2245000
1$
#2250000
0$
b11011001 .
#2255000
1$
#2260000
0$
b11011010 .
#2265000
1$
#2270000
0$
b11011011 .
#2275000
1$
#2280000
0$
b11011100 .
#2285000
1$
#2290000
0$
b11011101 .
#2295000
1$
#2300000
0$
b11011110 .
#2305000
1$
#2310000
0$
b11011111 .
#2315000
1$
#2320000
0$
b11100000 .
#2325000
1$
#2330000
0$
b11100001 .
#2335000
1$
#2340000
0$
b11100010 .
#2345000
1$
#2350000
0$
b11100011 .
#2355000
1$
#2360000
0$
b11100100 .
#2365000
1$
#2370000
0$
b11100101 .
#2375000
1$
#2380000
0$
b11100110 .
#2385000
1$
#2390000
0$
b11100111 .
#2395000
1$
#2400000
0$
b11101000 .
#2405000
1$
#2410000
0$
b11101001 .
#2415000
1$
#2420000
0$
b11101010 .
#2425000
1$
#2430000
0$
b11101011 .
#2435000
1$
#2440000
0$
b11101100 .
#2445000
1$
#2450000
0$
b11101101 .
#2455000
1$
#2460000
0$
b11101110 .
#2465000
1$
#2470000
0$
b11101111 .
#2475000
1$
#2480000
0$
b11110000 .
#2485000
1$
#2490000
0$
b11110001 .
#2495000
1$
#2500000
0$
b11110010 .
#2505000
1$
#2510000
0$
b11110011 .
#2515000
1$
#2520000
0$
b11110100 .
#2525000
1$
#2530000
0$
b11110101 .
#2535000
1$
#2540000
0$
b11110110 .
#2545000
1$
#2550000
0$
b11110111 .
#2555000
1$
#2560000
0$
b11111000 .
#2565000
1$
#2570000
0$
b11111001 .
#2575000
1$
#2580000
0$
b11111010 .
#2585000
1$
#2590000
0$
b11111011 .
#2595000
1$
#2600000
0$
b11111100 .
#2605000
1$
#2610000
0$
b11111101 .
#2615000
1$
#2620000
0$
b11111110 .
#2625000
1$
#2630000
0$
b11111111 .
#2635000
1$
#2640000
0$
b100000000 .
#2645000
1$
#2650000
0$
b100000001 .
#2655000
1$
#2660000
0$
b100000010 .
#2665000
1$
#2670000
0$
b100000011 .
#2675000
1$
#2680000
0$
b100000100 .
#2685000
1$
#2690000
0$
b100000101 .
#2695000
1$
#2700000
0$
b100000110 .
#2705000
1$
#2710000
0$
b100000111 .
#2715000
1$
#2720000
0$
b100001000 .
#2725000
1$
#2730000
0$
b100001001 .
#2735000
1$
#2740000
0$
b100001010 .
#2745000
1$
#2750000
0$
b100001011 .
#2755000
1$
#2760000
0$
b100001100 .
#2765000
1$
#2770000
0$
b100001101 .
#2775000
1$
#2780000
0$
b100001110 .
#2785000
1$
#2790000
0$
b100001111 .
#2795000
1$
#2800000
0$
b100010000 .
#2805000
1$
#2810000
0$
b100010001 .
#2815000
1$
#2820000
0$
b100010010 .
#2825000
1$
#2830000
0$
b100010011 .
#2835000
1$
#2840000
0$
b100010100 .
#2845000
1$
#2850000
0$
b100010101 .
#2855000
1$
#2860000
0$
b100010110 .
#2865000
1$
#2870000
0$
b100010111 .
#2875000
1$
#2880000
0$
b100011000 .
#2885000
1$
#2890000
0$
b100011001 .
#2895000
1$
#2900000
0$
b100011010 .
#2905000
1$
#2910000
0$
b100011011 .
#2915000
1$
#2920000
0$
b100011100 .
#2925000
1$
#2930000
0$
b100011101 .
#2935000
1$
#2940000
0$
b100011110 .
#2945000
1$
#2950000
0$
b100011111 .
#2955000
1$
#2960000
0$
b100100000 .
#2965000
1$
#2970000
0$
b100100001 .
#2975000
1$
#2980000
0$
b100100010 .
#2985000
1$
#2990000
0$
b100100011 .
#2995000
1$
#3000000
0$
b100100100 .
#3005000
1$
#3010000
0$
b100100101 .
#3015000
1$
#3020000
0$
b100100110 .
#3025000
1$
#3030000
0$
b100100111 .
#3035000
1$
#3040000
0$
b100101000 .
#3045000
1$
#3050000
0$
b100101001 .
#3055000
1$
#3060000
0$
b100101010 .
#3065000
1$
#3070000
0$
b100101011 .
#3075000
1$
#3080000
0$
1'
b1111111011101101 %
b1111111011101101 )
b100101100 .
#3085000
0!
1$
#3090000
0$
0'
#3095000
b1 -
1$
#3100000
0$
b1 /
#3105000
b10 -
1$
#3110000
0$
b10 /
#3115000
b11 -
1$
#3120000
0$
b11 /
#3125000
b100 -
1$
#3130000
0$
b100 /
#3135000
b101 -
1#
1$
#3140000
0$
b101 /
#3145000
b110 -
1$
#3150000
0$
b110 /
#3155000
b111 -
1$
#3160000
0$
b111 /
#3165000
b1000 -
1$
#3170000
0$
b1000 /
#3175000
b1001 -
1$
#3180000
0$
b1001 /
#3185000
b0 -
b1110 ,
0"
0#
1$
#3190000
0$
b1010 /
#3195000
b1 -
1$
#3200000
0$
b1011 /
#3205000
b10 -
1$
#3210000
0$
b1100 /
#3215000
b11 -
1$
#3220000
0$
b1101 /
#3225000
b100 -
1$
#3230000
0$
b1110 /
#3235000
b101 -
1#
1$
#3240000
0$
b1111 /
#3245000
b110 -
1$
#3250000
0$
b10000 /
#3255000
b111 -
1$
#3260000
0$
b10001 /
#3265000
b1000 -
1$
#3270000
0$
b10010 /
#3275000
b1001 -
1$
#3280000
0$
b10011 /
#3285000
b0 -
b1101 ,
1"
0#
1$
#3290000
0$
b10100 /
#3295000
b1 -
1$
#3300000
0$
b10101 /
#3305000
b10 -
1$
#3310000
0$
b10110 /
#3315000
b11 -
1$
#3320000
0$
b10111 /
#3325000
b100 -
1$
#3330000
0$
b11000 /
#3335000
b101 -
1#
1$
#3340000
0$
b11001 /
#3345000
b110 -
1$
#3350000
0$
b11010 /
#3355000
b111 -
1$
#3360000
0$
b11011 /
#3365000
b1000 -
1$
#3370000
0$
b11100 /
#3375000
b1001 -
1$
#3380000
0$
b11101 /
#3385000
b0 -
b1100 ,
0#
1$
#3390000
0$
b11110 /
#3395000
b1 -
1$
#3400000
0$
b11111 /
#3405000
b10 -
1$
#3410000
0$
b100000 /
#3415000
b11 -
1$
#3420000
0$
b100001 /
#3425000
b100 -
1$
#3430000
0$
b100010 /
#3435000
b101 -
1#
1$
#3440000
0$
b100011 /
#3445000
b110 -
1$
#3450000
0$
b100100 /
#3455000
b111 -
1$
#3460000
0$
b100101 /
#3465000
b1000 -
1$
#3470000
0$
b100110 /
#3475000
b1001 -
1$
#3480000
0$
b100111 /
#3485000
b0 -
b1011 ,
0#
1$
#3490000
0$
b101000 /
#3495000
b1 -
1$
#3500000
0$
b101001 /
#3505000
b10 -
1$
#3510000
0$
b101010 /
#3515000
b11 -
1$
#3520000
0$
b101011 /
#3525000
b100 -
1$
#3530000
0$
b101100 /
#3535000
b101 -
1#
1$
#3540000
0$
b101101 /
#3545000
b110 -
1$
#3550000
0$
b101110 /
#3555000
b111 -
1$
#3560000
0$
b101111 /
#3565000
b1000 -
1$
#3570000
0$
b110000 /
#3575000
b1001 -
1$
#3580000
0$
b110001 /
#3585000
b0 -
b1010 ,
0#
1$
#3590000
0$
b110010 /
#3595000
b1 -
1$
#3600000
0$
b110011 /
#3605000
b10 -
1$
#3610000
0$
b110100 /
#3615000
b11 -
1$
#3620000
0$
b110101 /
#3625000
b100 -
1$
#3630000
0$
b110110 /
#3635000
b101 -
1#
1$
#3640000
0$
b110111 /
#3645000
b110 -
1$
#3650000
0$
b111000 /
#3655000
b111 -
1$
#3660000
0$
b111001 /
#3665000
b1000 -
1$
#3670000
0$
b111010 /
#3675000
b1001 -
1$
#3680000
0$
b111011 /
#3685000
b0 -
b1001 ,
0#
1$
#3690000
0$
b111100 /
#3695000
b1 -
1$
#3700000
0$
b111101 /
#3705000
b10 -
1$
#3710000
0$
b111110 /
#3715000
b11 -
1$
#3720000
0$
b111111 /
#3725000
b100 -
1$
#3730000
0$
b1000000 /
#3735000
b101 -
1#
1$
#3740000
0$
b1000001 /
#3745000
b110 -
1$
#3750000
0$
b1000010 /
#3755000
b111 -
1$
#3760000
0$
b1000011 /
#3765000
b1000 -
1$
#3770000
0$
b1000100 /
#3775000
b1001 -
1$
#3780000
0$
b1000101 /
#3785000
b0 -
b1000 ,
0"
0#
1$
#3790000
0$
b1000110 /
#3795000
b1 -
1$
#3800000
0$
b1000111 /
#3805000
b10 -
1$
#3810000
0$
b1001000 /
#3815000
b11 -
1$
#3820000
0$
b1001001 /
#3825000
b100 -
1$
#3830000
0$
b1001010 /
#3835000
b101 -
1#
1$
#3840000
0$
b1001011 /
#3845000
b110 -
1$
#3850000
0$
b1001100 /
#3855000
b111 -
1$
#3860000
0$
b1001101 /
#3865000
b1000 -
1$
#3870000
0$
b1001110 /
#3875000
b1001 -
1$
#3880000
0$
b1001111 /
#3885000
b0 -
b111 ,
1"
0#
1$
#3890000
0$
b1010000 /
#3895000
b1 -
1$
#3900000
0$
b1010001 /
#3905000
b10 -
1$
#3910000
0$
b1010010 /
#3915000
b11 -
1$
#3920000
0$
b1010011 /
#3925000
b100 -
1$
#3930000
0$
b1010100 /
#3935000
b101 -
1#
1$
#3940000
0$
b1010101 /
#3945000
b110 -
1$
#3950000
0$
b1010110 /
#3955000
b111 -
1$
#3960000
0$
b1010111 /
#3965000
b1000 -
1$
#3970000
0$
b1011000 /
#3975000
b1001 -
1$
#3980000
0$
b1011001 /
#3985000
b0 -
b110 ,
0#
1$
#3990000
0$
b1011010 /
#3995000
b1 -
1$
#4000000
0$
b1011011 /
#4005000
b10 -
1$
#4010000
0$
b1011100 /
#4015000
b11 -
1$
#4020000
0$
b1011101 /
#4025000
b100 -
1$
#4030000
0$
b1011110 /
#4035000
b101 -
1#
1$
#4040000
0$
b1011111 /
#4045000
b110 -
1$
#4050000
0$
b1100000 /
#4055000
b111 -
1$
#4060000
0$
b1100001 /
#4065000
b1000 -
1$
#4070000
0$
b1100010 /
#4075000
b1001 -
1$
#4080000
0$
b1100011 /
#4085000
b0 -
b101 ,
0#
1$
#4090000
0$
b1100100 /
#4095000
b1 -
1$
#4100000
0$
b1100101 /
#4105000
b10 -
1$
#4110000
0$
b1100110 /
#4115000
b11 -
1$
#4120000
0$
b1100111 /
#4125000
b100 -
1$
#4130000
0$
b1101000 /
#4135000
b101 -
1#
1$
#4140000
0$
b1101001 /
#4145000
b110 -
1$
#4150000
0$
b1101010 /
#4155000
b111 -
1$
#4160000
0$
b1101011 /
#4165000
b1000 -
1$
#4170000
0$
b1101100 /
#4175000
b1001 -
1$
#4180000
0$
b1101101 /
#4185000
b0 -
b100 ,
0"
0#
1$
#4190000
0$
b1101110 /
#4195000
b1 -
1$
#4200000
0$
b1101111 /
#4205000
b10 -
1$
#4210000
0$
b1110000 /
#4215000
b11 -
1$
#4220000
0$
b1110001 /
#4225000
b100 -
1$
#4230000
0$
b1110010 /
#4235000
b101 -
1#
1$
#4240000
0$
b1110011 /
#4245000
b110 -
1$
#4250000
0$
b1110100 /
#4255000
b111 -
1$
#4260000
0$
b1110101 /
#4265000
b1000 -
1$
#4270000
0$
b1110110 /
#4275000
b1001 -
1$
#4280000
0$
b1110111 /
#4285000
b0 -
b11 ,
1"
0#
1$
#4290000
0$
b1111000 /
#4295000
b1 -
1$
#4300000
0$
b1111001 /
#4305000
b10 -
1$
#4310000
0$
b1111010 /
#4315000
b11 -
1$
#4320000
0$
b1111011 /
#4325000
b100 -
1$
#4330000
0$
b1111100 /
#4335000
b101 -
1#
1$
#4340000
0$
b1111101 /
#4345000
b110 -
1$
#4350000
0$
b1111110 /
#4355000
b111 -
1$
#4360000
0$
b1111111 /
#4365000
b1000 -
1$
#4370000
0$
b10000000 /
#4375000
b1001 -
1$
#4380000
0$
b10000001 /
#4385000
b0 -
b10 ,
0#
1$
#4390000
0$
b10000010 /
#4395000
b1 -
1$
#4400000
0$
b10000011 /
#4405000
b10 -
1$
#4410000
0$
b10000100 /
#4415000
b11 -
1$
#4420000
0$
b10000101 /
#4425000
b100 -
1$
#4430000
0$
b10000110 /
#4435000
b101 -
1#
1$
#4440000
0$
b10000111 /
#4445000
b110 -
1$
#4450000
0$
b10001000 /
#4455000
b111 -
1$
#4460000
0$
b10001001 /
#4465000
b1000 -
1$
#4470000
0$
b10001010 /
#4475000
b1001 -
1$
#4480000
0$
b10001011 /
#4485000
b0 -
b1 ,
0#
1$
#4490000
0$
b10001100 /
#4495000
b1 -
1$
#4500000
0$
b10001101 /
#4505000
b10 -
1$
#4510000
0$
b10001110 /
#4515000
b11 -
1$
#4520000
0$
b10001111 /
#4525000
b100 -
1$
#4530000
0$
b10010000 /
#4535000
b101 -
1#
1$
#4540000
0$
b10010001 /
#4545000
b110 -
1$
#4550000
0$
b10010010 /
#4555000
b111 -
1$
#4560000
0$
b10010011 /
#4565000
b1000 -
1$
#4570000
0$
b10010100 /
#4575000
b1001 -
1$
#4580000
0$
b10010101 /
#4585000
b0 -
b0 ,
0#
1$
#4590000
0$
b10010110 /
#4595000
b1 -
1$
#4600000
0$
b10010111 /
#4605000
b10 -
1$
#4610000
0$
b10011000 /
#4615000
b11 -
1$
#4620000
0$
b10011001 /
#4625000
b100 -
1$
#4630000
0$
b10011010 /
#4635000
b101 -
1#
1$
#4640000
0$
b10011011 /
#4645000
b110 -
1$
#4650000
0$
b10011100 /
#4655000
b111 -
1$
#4660000
0$
b10011101 /
#4665000
b1000 -
1$
#4670000
0$
b10011110 /
#4675000
b1001 -
1$
#4680000
0$
b10011111 /
#4685000
b0 -
b1111 ,
b1111111011101101 +
1!
0#
1$
#4690000
0$
b10100000 /
#4695000
1$
#4700000
0$
b10100001 /
#4705000
1$
#4710000
0$
b10100010 /
#4715000
1$
#4720000
0$
b10100011 /
#4725000
1$
#4730000
0$
b10100100 /
#4735000
1$
#4740000
0$
b10100101 /
#4745000
1$
#4750000
0$
b10100110 /
#4755000
1$
#4760000
0$
b10100111 /
#4765000
1$
#4770000
0$
b10101000 /
#4775000
1$
#4780000
0$
b10101001 /
#4785000
1$
#4790000
0$
b10101010 /
#4795000
1$
#4800000
0$
b10101011 /
#4805000
1$
#4810000
0$
b10101100 /
#4815000
1$
#4820000
0$
b10101101 /
#4825000
1$
#4830000
0$
b10101110 /
#4835000
1$
#4840000
0$
b10101111 /
#4845000
1$
#4850000
0$
b10110000 /
#4855000
1$
#4860000
0$
b10110001 /
#4865000
1$
#4870000
0$
b10110010 /
#4875000
1$
#4880000
0$
b10110011 /
#4885000
1$
#4890000
0$
b10110100 /
#4895000
1$
#4900000
0$
b10110101 /
#4905000
1$
#4910000
0$
b10110110 /
#4915000
1$
#4920000
0$
b10110111 /
#4925000
1$
#4930000
0$
b10111000 /
#4935000
1$
#4940000
0$
b10111001 /
#4945000
1$
#4950000
0$
b10111010 /
#4955000
1$
#4960000
0$
b10111011 /
#4965000
1$
#4970000
0$
b10111100 /
#4975000
1$
#4980000
0$
b10111101 /
#4985000
1$
#4990000
0$
b10111110 /
#4995000
1$
#5000000
0$
b10111111 /
#5005000
1$
#5010000
0$
b11000000 /
#5015000
1$
#5020000
0$
b11000001 /
#5025000
1$
#5030000
0$
b11000010 /
#5035000
1$
#5040000
0$
b11000011 /
#5045000
1$
#5050000
0$
b11000100 /
#5055000
1$
#5060000
0$
b11000101 /
#5065000
1$
#5070000
0$
b11000110 /
#5075000
1$
#5080000
0$
b11000111 /
#5085000
1$
#5090000
0$
b11001000 /
#5095000
1$
#5100000
0$
b11001001 /
#5105000
1$
#5110000
0$
b11001010 /
#5115000
1$
#5120000
0$
b11001011 /
#5125000
1$
#5130000
0$
b11001100 /
#5135000
1$
#5140000
0$
b11001101 /
#5145000
1$
#5150000
0$
b11001110 /
#5155000
1$
#5160000
0$
b11001111 /
#5165000
1$
#5170000
0$
b11010000 /
#5175000
1$
#5180000
0$
b11010001 /
#5185000
1$
#5190000
0$
b11010010 /
#5195000
1$
#5200000
0$
b11010011 /
#5205000
1$
#5210000
0$
b11010100 /
#5215000
1$
#5220000
0$
b11010101 /
#5225000
1$
#5230000
0$
b11010110 /
#5235000
1$
#5240000
0$
b11010111 /
#5245000
1$
#5250000
0$
b11011000 /
#5255000
1$
#5260000
0$
b11011001 /
#5265000
1$
#5270000
0$
b11011010 /
#5275000
1$
#5280000
0$
b11011011 /
#5285000
1$
#5290000
0$
b11011100 /
#5295000
1$
#5300000
0$
b11011101 /
#5305000
1$
#5310000
0$
b11011110 /
#5315000
1$
#5320000
0$
b11011111 /
#5325000
1$
#5330000
0$
b11100000 /
#5335000
1$
#5340000
0$
b11100001 /
#5345000
1$
#5350000
0$
b11100010 /
#5355000
1$
#5360000
0$
b11100011 /
#5365000
1$
#5370000
0$
b11100100 /
#5375000
1$
#5380000
0$
b11100101 /
#5385000
1$
#5390000
0$
b11100110 /
#5395000
1$
#5400000
0$
b11100111 /
#5405000
1$
#5410000
0$
b11101000 /
#5415000
1$
#5420000
0$
b11101001 /
#5425000
1$
#5430000
0$
b11101010 /
#5435000
1$
#5440000
0$
b11101011 /
#5445000
1$
#5450000
0$
b11101100 /
#5455000
1$
#5460000
0$
b11101101 /
#5465000
1$
#5470000
0$
b11101110 /
#5475000
1$
